<svg version="1.1" xmlns="http://www.w3.org/2000/svg" viewBox="0 0 280 155" xml:space="preserve">
    <g fill="#27bdc0" style="opacity: 0.65;">
        <path d="M 0, 155 L 0, 35 L 135, 0 L 280, 155 L 0, 155 Z" />
    </g>
</svg>
