<?xml version="1.0" encoding="iso-8859-1"?>
<!-- Generator: Adobe Illustrator 16.0.0, SVG Export Plug-In . SVG Version: 6.00 Build 0)  -->
<!DOCTYPE svg PUBLIC "-//W3C//DTD SVG 1.1//EN" "http://www.w3.org/Graphics/SVG/1.1/DTD/svg11.dtd">
<svg xmlns="http://www.w3.org/2000/svg" xmlns:xlink="http://www.w3.org/1999/xlink" version="1.1" id="Capa_1" x="0px" y="0px" width="512px" height="512px" viewBox="0 0 392.479 392.48" style="enable-background:new 0 0 392.479 392.48;" xml:space="preserve">
	<g stroke="#27bdc0" stroke-width="12" fill="none">
		<path d="M308.794,251.181c3.608-8.377,3.902-15.961,0.891-22.586c-1.172-2.585-2.868-4.996-5.022-7.149    c-3.62-3.62-7.87-5.886-10.94-7.184c2.356-8.145,1.753-15.261-1.79-21.177c-0.972-1.628-2.194-3.151-3.589-4.578    c-9.48-9.699-16.646-7.21-16.646-7.21s3.873-15.466-7.336-26.43c-11.208-10.964-21.867-6.279-31.115,3.119l-46.607,46.588    c-6.585-2.472-16.945-8.701-27.616-7.477c-19.005,2.183-23.958,14.89-26.639,25.528c-6.065,24.03-4.261,59.86-11.127,73.704    c-8.443,17.023-24.976,31.319-24.976,31.319l64.83,64.83c26.395-26.396,51.79-33.233,70.74-41.16    c42.941-17.965,64.021-39.474,74.744-51.022C328.828,276.346,311.92,255.558,308.794,251.181z" />
	</g>
	<g fill="#27bdc0">
		<path d="M101.214,72.001c1.069,1.36,2.188,2.795,3.357,4.309c3.261,4.219,6.94,8.979,10.954,14.171    c4.028,5.181,8.328,10.845,12.891,16.823c4.539,5.999,9.324,12.324,14.275,18.867c5.029,6.481,9.314,13.903,14.24,20.989    c5.07,6.971,10.223,14.054,15.373,21.137c4.006,5.499,8.011,10.998,11.979,16.445l14.25-14.244    c-3.911-4.53-7.85-9.094-11.791-13.659c-5.727-6.625-11.454-13.25-17.093-19.772c-5.781-6.408-12.036-12.266-17.205-18.636    c-5.247-6.308-10.321-12.405-15.132-18.188c-4.786-5.801-9.326-11.275-13.456-16.375c-4.145-5.088-7.944-9.753-11.313-13.887    c-1.208-1.481-2.35-2.898-3.433-4.248c2.03-4.044,1.688-9.067-1.312-12.847L95.99,38.004c-4.121-5.191-11.669-6.06-16.859-1.94    c-5.19,4.12-6.061,11.668-1.94,16.859l11.811,14.883C91.999,71.586,96.813,73.061,101.214,72.001z" />
		<path d="M134.575,34.433c2.331,4.224,6.834,6.477,11.35,6.162c0.828,1.519,1.694,3.119,2.596,4.805    c2.518,4.701,5.357,10.004,8.455,15.791c3.114,5.777,6.416,12.075,9.925,18.727c3.481,6.667,7.152,13.698,10.95,20.972    c3.887,7.225,6.881,15.254,10.565,23.059c3.845,7.716,7.752,15.554,11.657,23.393c2.377,4.761,4.753,9.521,7.117,14.255    l14.364-14.358c-1.779-2.93-3.562-5.866-5.344-8.803c-4.551-7.483-9.101-14.965-13.578-22.332    c-4.642-7.277-9.839-14.09-13.881-21.229c-4.129-7.091-8.122-13.944-11.907-20.444c-3.759-6.515-7.329-12.664-10.556-18.379    c-3.244-5.705-6.22-10.934-8.854-15.569c-0.946-1.662-1.839-3.248-2.683-4.758c2.674-3.653,3.168-8.664,0.836-12.887    l-9.181-16.635c-3.202-5.803-10.503-7.91-16.305-4.707c-5.802,3.202-7.91,10.502-4.708,16.305L134.575,34.433z" />
	</g>
</svg>
