<svg version="1.1" xmlns="http://www.w3.org/2000/svg" x="0px" y="0px" viewBox="0 0 512 512">
	<path fill="#27bdc0" d="M160,96v304.594C143,390.375,120.688,384,96,384c-53,0-96,28.625-96,64s43,64,96,64s96-28.625,96-64V151.281l288-78.563 v231.875C463,294.375,440.688,288,416,288c-53,0-96,28.625-96,64s43,64,96,64s96-28.625,96-64V0L160,96z"/>
</svg>
